RESULT:  Accepted
Score

20.0

 
Time (sec)

1.80792

 
Memory (KiB)

116696

 
Language

C#

Input	Result	Time (sec)	Memory (KiB)	Score	Your Output	Correct Output	Diff
Input #1		0.101066	64	             4			
Input #2		0.107531	64	             4			
Input #3		0.109688	64	             4			
Input #4		0.109007	64             	 4			
Input #5		0.107209	64	             7			
Input #6		0.104032	64	             7			
Input #7		0.108549	64	             7			
Input #8		0.109875	64	             7			
Input #9		0.100575	64	             6			
Input #10		0.104278	64	             4			
Input #11		0.106096	64	             6			
Input #12		0.109586	64	             8			
Input #13		0.111545	64	             8			
Input #14		0.207244	116696	         8			
Input #15		0.101291	64	             8			
Input #16		0.11035   	64	             8			